Linear Regression
…
female_heights <- GaltonFamilies %>%     
    filter(gender == "female") %>%     
    group_by(family) %>% 
    sample_n(1) %>% 
    ungroup() %>% 
    select(mother,childHeight) %>% 
    rename(daughter = childHeight)

female_heights

## # A tibble: 176 x 2
##    mother daughter
##     <dbl>    <dbl>
##  1   67       69  
##  2   66.5     65.5
##  3   64       68  
##  4   64       64.5
##  5   58.5     62.5
##  6   68       69.5
##  7   68       64  
##  8   66.5     66  
##  9   66       66  
## 10   65.5     65.5
## # ... with 166 more rows
…
