Visualizing Arlington Bikometers
…
## Warning: Missing values are always removed in SQL.
## Use `SUM(x, na.rm = TRUE)` to silence this warning
## This warning is displayed only once per session.

## `summarise()` has grouped output by 'date'. You can override using the `.groups` argument.

counts_daily_total

## Warning in `*.integer64`((x[equal] - y[equal]), 2^-l2x[equal]): NAs produced by
## integer64 overflow

## # A tibble: 57,271 x 8
## # Groups:   date [3,313]
##    date       bikeometer_id count is_weekend   month     day    year month_day
##    <date>             <int> <dbl>    <int64> <int64> <int64> <int64> <chr>    
##  1 2010-12-08             3   112          0      12       8    2010 12_8     
##  2 2010-12-09             3   432          0      12       9    2010 12_9     
##  3 2010-12-10             3   346          0      12      10    2010 12_10    
##  4 2010-12-11             3   286          1      12      11    2010 12_11    
##  5 2010-12-12             3    33          1      12      12    2010 12_12    
##  6 2010-12-13             3   195          0      12      13    2010 12_13    
##  7 2010-12-14             3   183          0      12      14    2010 12_14    
##  8 2010-12-15             3   187          0      12      15    2010 12_15    
##  9 2010-12-16             3    96          0      12      16    2010 12_16    
## 10 2010-12-17             3    29          0      12      17    2010 12_17    
## # ... with 57,261 more rows

To do a quick check, we can add the ‘I’ and ‘O’ values for bikeometer_id=3, date=2010-12-08 (16+96=112). Looking at our new table, we can look at the first observation to see that it worked.

Even though it isn’t mentioned in the Bike Arlington documentation, it’s important to account for the ‘A’ direction. When the Bikeometer can’t distinguish between outbound and inbound directions, the direction is classified as ‘A’.

Let’s use Bikeometer 14 as an example and check to make sure our ‘A’ counts have been properly moved over to our table.

counts_daily_a <- counts_daily_total %>% filter(bikeometer_id == '14') %>% collect()
counts_daily_a

## Warning in `*.integer64`((x[equal] - y[equal]), 2^-l2x[equal]): NAs produced by
## integer64 overflow

## # A tibble: 1,576 x 8
## # Groups:   date [1,576]
##    date       bikeometer_id count is_weekend   month     day    year month_day
##    <date>             <int> <dbl>    <int64> <int64> <int64> <int64> <chr>    
##  1 2012-12-04            14    73          0      12       4    2012 12_4     
##  2 2012-12-05            14   105          0      12       5    2012 12_5     
##  3 2012-12-06            14    84          0      12       6    2012 12_6     
##  4 2012-12-07            14    59          0      12       7    2012 12_7     
##  5 2012-12-08            14    96          1      12       8    2012 12_8     
##  6 2012-12-09            14    42          1      12       9    2012 12_9     
##  7 2012-12-10            14   104          0      12      10    2012 12_10    
##  8 2012-12-11            14    91          0      12      11    2012 12_11    
##  9 2012-12-12            14    78          0      12      12    2012 12_12    
## 10 2012-12-13            14   114          0      12      13    2012 12_13    
## # ... with 1,566 more rows

Next, we will confirm that these counts match the counts in the original counts_daily table.

counts_daily_a <- counts_daily %>% filter(bikeometer_id == '14') %>% collect()
counts_daily_a

## Warning in `*.integer64`((x[equal] - y[equal]), 2^-l2x[equal]): NAs produced by
## integer64 overflow

## # A tibble: 1,580 x 9
##    bikeometer_id date       direction count is_weekend    year   month     day
##            <int> <date>     <chr>     <chr>    <int64> <int64> <int64> <int64>
##  1            14 2012-12-04 A         73             0    2012      12       4
##  2            14 2012-12-05 A         105            0    2012      12       5
##  3            14 2012-12-06 A         84             0    2012      12       6
##  4            14 2012-12-07 A         59             0    2012      12       7
##  5            14 2012-12-08 A         96             1    2012      12       8
##  6            14 2012-12-09 A         42             1    2012      12       9
##  7            14 2012-12-10 A         104            0    2012      12      10
##  8            14 2012-12-11 A         91             0    2012      12      11
##  9            14 2012-12-12 A         78             0    2012      12      12
## 10            14 2012-12-13 A         114            0    2012      12      13
## # ... with 1,570 more rows, and 1 more variable: month_day <chr>
…
This is where our hard work will start to pay off. Let’s use the date’s we chose in Part 1 (March 12 - May 15), pick a Bikeometer (28), and create a graph.

First, we will filter our data. We will pipe our counts_daily_total table into the dplyr:filter function to subset rows using column values.

counts_daily_filtered <- counts_daily_total %>% 
  filter(date >= '2017-03-12' & date <= '2017-05-15' & bikeometer_id == '28'| 
         date >= '2018-03-12' & date <= '2018-05-15' & bikeometer_id == '28'|
         date >= '2019-03-12' & date <= '2019-05-15' & bikeometer_id == '28'| 
         date >= '2020-03-12' & date <= '2020-05-15' & bikeometer_id == '28') %>%
  print()

## Warning in `*.integer64`((x[equal] - y[equal]), 2^-l2x[equal]): NAs produced by
## integer64 overflow

## # A tibble: 240 x 8
## # Groups:   date [240]
##    date       bikeometer_id count is_weekend   month     day    year month_day
##    <date>             <int> <dbl>    <int64> <int64> <int64> <int64> <chr>    
##  1 2017-04-01            28   611          1       4       1    2017 4_1      
##  2 2017-04-02            28  1213          1       4       2    2017 4_2      
##  3 2017-04-03            28  1142          0       4       3    2017 4_3      
##  4 2017-04-04            28  1344          0       4       4    2017 4_4      
##  5 2017-04-05            28  1548          0       4       5    2017 4_5      
##  6 2017-04-06            28   377          0       4       6    2017 4_6      
##  7 2017-04-07            28   382          0       4       7    2017 4_7      
##  8 2017-04-08            28   705          1       4       8    2017 4_8      
##  9 2017-04-09            28  1361          1       4       9    2017 4_9      
## 10 2017-04-10            28  1444          0       4      10    2017 4_10     
## # ... with 230 more rows
…
Very cool! Let’s see what the actual highest counts are by sorting the rows by descending ‘counts’.

Order by descending counts

We can use the dplyr function arrange(), specify the variable name (count) and specify to sort in descending order.

counts_daily_filtered %>% arrange(desc(count))

## Warning in `*.integer64`((x[equal] - y[equal]), 2^-l2x[equal]): NAs produced by
## integer64 overflow

## # A tibble: 240 x 8
## # Groups:   date [240]
##    date       bikeometer_id count is_weekend   month     day    year month_day
##    <date>             <int> <dbl>    <int64> <int64> <int64> <int64> <chr>    
##  1 2020-05-02            28  2669          1       5       2    2020 5_2      
##  2 2018-05-08            28  1840          0       5       8    2018 5_8      
##  3 2020-04-05            28  1815          1       4       5    2020 4_5      
##  4 2018-05-01            28  1812          0       5       1    2018 5_1      
##  5 2018-05-09            28  1740          0       5       9    2018 5_9      
##  6 2018-05-07            28  1701          0       5       7    2018 5_7      
##  7 2018-05-02            28  1699          0       5       2    2018 5_2      
##  8 2019-04-01            28  1648          0       4       1    2019 4_1      
##  9 2018-04-13            28  1617          0       4      13    2018 4_13     
## 10 2018-04-14            28  1617          1       4      14    2018 4_14     
## # ... with 230 more rows
…
